…
``` r
library(tidyverse)
library(p8105.datasets)
```

# question 1

``` r
data("instacart") 
janitor::clean_names(instacart)
```

    ## # A tibble: 1,384,617 × 15
    ##    order_id product_id add_to_…¹ reord…² user_id eval_…³ order…⁴ order…⁵ order…⁶
    ##       <int>      <int>     <int>   <int>   <int> <chr>     <int>   <int>   <int>
    ##  1        1      49302         1       1  112108 train         4       4      10
    ##  2        1      11109         2       1  112108 train         4       4      10
    ##  3        1      10246         3       0  112108 train         4       4      10
    ##  4        1      49683         4       0  112108 train         4       4      10
    ##  5        1      43633         5       1  112108 train         4       4      10
    ##  6        1      13176         6       0  112108 train         4       4      10
    ##  7        1      47209         7       0  112108 train         4       4      10
    ##  8        1      22035         8       1  112108 train         4       4      10
    ##  9       36      39612         1       0   79431 train        23       6      18
    ## 10       36      19660         2       1   79431 train        23       6      18
    ## # … with 1,384,607 more rows, 6 more variables: days_since_prior_order <int>,
    ## #   product_name <chr>, aisle_id <int>, department_id <int>, aisle <chr>,
    ## #   department <chr>, and abbreviated variable names ¹​add_to_cart_order,
    ## #   ²​reordered, ³​eval_set, ⁴​order_number, ⁵​order_dow, ⁶​order_hour_of_day
…
    ## Rows: 35 Columns: 1443
    ## ── Column specification ────────────────────────────────────────────────────────
    ## Delimiter: ","
    ## chr    (1): day
    ## dbl (1442): week, day_id, activity.1, activity.2, activity.3, activity.4, ac...
    ## 
    ## ℹ Use `spec()` to retrieve the full column specification for this data.
    ## ℹ Specify the column types or set `show_col_types = FALSE` to quiet this message.

``` r
accel_data 
```

    ## # A tibble: 50,400 × 6
    ##     week day_id day    weekday_vs_weekend activity activity_counts
    ##    <dbl>  <dbl> <chr>  <fct>              <chr>              <dbl>
    ##  1     1      1 Friday 1                  1                   88.4
    ##  2     1      1 Friday 1                  2                   82.2
    ##  3     1      1 Friday 1                  3                   64.4
    ##  4     1      1 Friday 1                  4                   70.0
    ##  5     1      1 Friday 1                  5                   75.0
    ##  6     1      1 Friday 1                  6                   66.3
    ##  7     1      1 Friday 1                  7                   53.8
    ##  8     1      1 Friday 1                  8                   47.8
    ##  9     1      1 Friday 1                  9                   55.5
    ## 10     1      1 Friday 1                  10                  43.0
    ## # … with 50,390 more rows
…
missing data is an issue

``` r
ny_noaadf %>% 
  group_by(snow) %>% 
    summarize(
    n_obs = n()) %>% 
arrange(desc(n_obs))
```

    ## # A tibble: 282 × 2
    ##     snow   n_obs
    ##    <int>   <int>
    ##  1     0 2008508
    ##  2    NA  381221
    ##  3    25   31022
    ##  4    13   23095
    ##  5    51   18274
    ##  6    76   10173
    ##  7     8    9962
    ##  8     5    9748
    ##  9    38    9197
    ## 10     3    8790
    ## # … with 272 more rows
…
